{
  "RECORDS": [
    {
      "id": "1",
      "display_name": "asd",
      "type": "poker_application",
      "icon": "",
      "application_id": "",
      "required_version": "",
      "signature": "",
      "install_url": "",
      "client_id": "default",
      "network": "UNKNOWN_NETWORK",
      "enabled": "t",
      "order": "1000"
    }
  ]
}